{
    "version": "0",
    "id": "247c8e7d-ce4c-9c88-0d32-7cadf7fbbe06",
    "detail-type": "Scheduled Event",
    "source": "aws.events",
    "account": "781250849333",
    "time": "2022-10-03T13:00:00Z",
    "region": "us-east-1",
    "resources": [
        "arn:aws:events:us-east-1:781250849333:rule/solarstats-trigger"
    ],
    "detail": {}
}
